…
### Answering Questions

#### How many aisles are there, and which aisles are the most items ordered from?

``` r
instacart %>% count(aisle) %>% arrange(desc(n))
```

    ## # A tibble: 134 × 2
    ##    aisle                              n
    ##    <chr>                          <int>
    ##  1 fresh vegetables              150609
    ##  2 fresh fruits                  150473
    ##  3 packaged vegetables fruits     78493
    ##  4 yogurt                         55240
    ##  5 packaged cheese                41699
    ##  6 water seltzer sparkling water  36617
    ##  7 milk                           32644
    ##  8 chips pretzels                 31269
    ##  9 soy lactosefree                26240
    ## 10 bread                          23635
    ## # … with 124 more rows
    ## # ℹ Use `print(n = ...)` to see more rows
…
`accel` has a total of 50400 observations and 6 variables. Each row
contains accelerometer measurements for 24 hours. Variables include week
and day of measurement, whether the day was a weekend or not, and
accelerometer measurements for each minute of a 24 hour day starting at
midnight. This particular subject was tracked for 5 weeks or 35 days.

### Aggregate across minutes to create a total activity variable for each day, and create a table showing these totals

``` r
accel %>% 
  group_by(day_id) %>%
  summarize(total_activity = sum(activity))
```

    ## # A tibble: 35 × 2
    ##    day_id total_activity
    ##     <dbl>          <dbl>
    ##  1      1        480543.
    ##  2      2         78828.
    ##  3      3        376254 
    ##  4      4        631105 
    ##  5      5        355924.
    ##  6      6        307094.
    ##  7      7        340115.
    ##  8      8        568839 
    ##  9      9        295431 
    ## 10     10        607175 
    ## # … with 25 more rows
    ## # ℹ Use `print(n = ...)` to see more rows
